59298 33905 340
59362 74334 335
95720 83732 333
5319 81126 351
74973 94738 351
97241 95519 297
33938 47982 324
15602 48813 324
91913 99337 328
80762 47596 351
1892 32724 308
20280 30301 308
73114 1574 340
23110 13738 279
32867 86919 351
37886 37475 306
77666 1977 351
38216 27057 324
76413 56431 335
14156 93798 351
3328 38433 324
67500 51443 340
36804 59971 340
52523 1590 324
29345 62859 340
13704 98486 351
53077 28124 340
9284 28173 308
91112 80662 333
33317 44042 324
36 66 113
45 50 105
33 64 113
5 26 24
31 74 116
11 33 112
2 45 112
29 52 110
8 11 20
9 14 20
28 40 107
25 31 112
26 36 112
22 50 112
7 41 112
1 25 24
12 58 113
21 77 116
13 52 112
47 48 105
129 388 144
306 874 179
341 749 171
146 506 144
192 775 171
152 593 144
397 802 171
364 851 171
351 938 179
265 403 144
410 629 142
105 204 125
188 479 144
404 537 142
360 413 134
407 813 171
222 697 145
431 806 171
363 433 134
462 752 171
3042 8084 262
3986 7089 262
3997 7005 262
3892 5572 236
3460 6919 262
3319 3996 238
2570 6417 262
1791 2309 183
3736 4443 215
3477 6913 262
2791 4157 238
3377 6931 262
1964 4969 238
3410 3844 238
3651 9115 262
1203 3546 217
2242 4154 238
1400 2030 180
2589 7801 262
2547 3934 238
601 204 144
990 312 179
899 172 179
809 87 171
520 370 142
596 481 142
696 28 145
853 382 171
540 435 142
918 285 179
810 67 171
842 61 171
832 349 171
934 85 179
837 275 171
822 91 171
604 350 142
604 455 142
610 475 142
702 242 145
999880 999881 153
999998 999999 259
