142224 658869 509
590513 16251 470
657129 863523 525
141702 851444 525
834303 128974 509
131791 23331 354
763203 267888 509
314356 113397 443
785609 506802 509
737659 423524 509
895484 407101 525
793278 986861 525
101012 8798 351
423784 112745 449
227541 992418 525
103543 100376 310
246028 321652 407
661415 304331 509
339563 214194 443
633174 652654 416
419441 666608 509
302506 7396 443
27981 686291 509
135946 339766 443
147242 28344 375
510789 71616 449
715030 923461 525
35460 425648 449
896063 235639 525
265559 957496 525
790181 415920 509
845652 84258 525
433796 958502 525
739557 297250 509
541992 789834 509
562403 483821 470
719118 463200 509
755304 542004 509
657367 59398 509
264551 639724 509
78743 415197 449
629360 827905 504
986303 893670 507
942825 106682 525
170673 667222 509
231095 799943 509
137484 943767 525
858575 878234 432
189859 985257 525
108421 544862 470
121792 106538 349
814048 781007 468
637699 574178 509
148716 568307 470
325016 155780 443
349381 772920 509
700396 614397 509
104786 256007 443
524188 576460 452
172057 515711 470
57680 383647 443
443630 570135 470
40992 134920 354
480483 165922 449
848634 134152 525
615542 407535 470
258276 33284 443
963917 23912 525
78976 823573 509
232561 634361 509
111285 906103 525
960626 151947 525
49820 273578 443
833842 771579 468
430097 570050 470
683118 951250 525
311857 359880 441
146242 487958 449
140866 817409 509
97742 53576 351
562254 589886 434
560120 758261 509
331057 210533 443
644188 88507 509
210302 712042 509
269447 805904 509
212778 681124 509
330386 739411 509
546975 879520 525
632554 299641 509
46947 49110 314
270449 993536 525
300788 921398 525
790688 730678 468
62436 747990 509
623715 412236 470
649038 582715 509
12576 756364 509
279035 694627 509
825928 914115 525
433858 355556 449
409383 437537 449
288819 199223 443
61465 215120 383
490182 272073 449
412907 916622 525
113018 283009 443
610037 989968 525
741916 322797 509
253526 591234 470
833273 995119 525
652847 81431 509
97526 947317 525
966077 683256 525
178203 930334 525
615696 506157 470
923328 168870 525
19938 502548 449
173727 670463 509
629055 883762 525
865709 101417 525
444676 504245 444
130039 721874 509
532842 821784 509
667353 631126 442
473503 377811 449
541762 228398 470
110603 913849 525
976637 675755 525
199756 490081 449
187664 461360 449
238287 124887 443
896624 120203 525
579638 133279 470
37659 180546 383
550043 935573 525
652440 716217 504
97509 510911 449
857079 303256 525
392158 135132 443
415126 344794 449
328122 529973 470
677612 282096 509
83961 511514 449
225590 374230 443
522749 52486 470
719040 980534 525
707295 371323 509
1617 816421 509
114988 182830 383
